0xAC4032EF,0x4F2D9AE3,0x9DF30B5C,0x8FFDAC50,0x6CDEBE7B,0x89998CAF,
0x74866A08,0xCFE4FFE3,0xA6824A4E,0x10B9A6F0,0xDD921F01,0xA70C4AFA,
0xAB739D77,0x00C29F52,0xC57DB17C,0x620A8652,0xBE5E9001,0xA8D66AD7,
0xC1766910,0x1999024A,0xF4D02727,0x5AC1348B,0xB8A762D0,0x521BC98A,
0xE2471504,0x22EA1ED4,0x09939D54,0xDA7460CD,0xB5F6C6B2,0x50717CBE,
0xF180EB34,0x118E98D1,0x19529A45,0xD6F83456,0x6E3025E3,0x16A330EF,
0xBB77A86F,0x0C1AB15B,0x051AE3D4,0x28C8F8AC,0xB70A8137,0x150B8EEB,
0x10E183ED,0xD19963DD,0xD9E263E4,0x770589EF,0x6AA21E7F,0x5F2FF381,
0xB539CCE3,0x409D13CD,0x566AFBB4,0x8D6C0191,0x81E1BCFE,0x94B30269,
0xEDFE72FE,0x9B6AA4BD,0x7B5A0F1C,0x71CFFF4C,0x19C418E1,0xF6EC0179,
0x81BC087F,0x2A7065B3,0x84B890D3,0x191F2BFA